%YAML 1.1
%TAG !u! tag:unity3d.com,2011:
--- !u!1 &6246982271195273670
GameObject:
  m_ObjectHideFlags: 0
  m_CorrespondingSourceObject: {fileID: 0}
  m_PrefabInstance: {fileID: 0}
  m_PrefabAsset: {fileID: 0}
  serializedVersion: 6
  m_Component:
  - component: {fileID: 6246982271195273664}
  - component: {fileID: 6246982271195273671}
  m_Layer: 10
  m_Name: BusStop
  m_TagString: Untagged
  m_Icon: {fileID: 0}
  m_NavMeshLayer: 0
  m_StaticEditorFlags: 0
  m_IsActive: 1
--- !u!4 &6246982271195273664
Transform:
  m_ObjectHideFlags: 0
  m_CorrespondingSourceObject: {fileID: 0}
  m_PrefabInstance: {fileID: 0}
  m_PrefabAsset: {fileID: 0}
  m_GameObject: {fileID: 6246982271195273670}
  m_LocalRotation: {x: 0, y: 0, z: 0, w: 1}
  m_LocalPosition: {x: 21.56, y: 9.8, z: 16.18}
  m_LocalScale: {x: 1, y: 1, z: 1}
  m_Children:
  - {fileID: 6246982272379226566}
  m_Father: {fileID: 0}
  m_RootOrder: 0
  m_LocalEulerAnglesHint: {x: 0, y: 0, z: 0}
--- !u!114 &6246982271195273671
MonoBehaviour:
  m_ObjectHideFlags: 0
  m_CorrespondingSourceObject: {fileID: 0}
  m_PrefabInstance: {fileID: 0}
  m_PrefabAsset: {fileID: 0}
  m_GameObject: {fileID: 6246982271195273670}
  m_Enabled: 1
  m_EditorHideFlags: 0
  m_Script: {fileID: 11500000, guid: d7bbe11ec3539044abc8ba2634afa79c, type: 3}
  m_Name: 
  m_EditorClassIdentifier: 
  m_playerStartPoint: 1
  m_radius: 5
--- !u!1001 &6246982272379330820
PrefabInstance:
  m_ObjectHideFlags: 0
  serializedVersion: 2
  m_Modification:
    m_TransformParent: {fileID: 6246982271195273664}
    m_Modifications:
    - target: {fileID: 125420, guid: dc0812e74328c2b49bd11a062b2a935e, type: 3}
      propertyPath: m_Name
      value: SD_Prop_Cage_01
      objectReference: {fileID: 0}
    - target: {fileID: 125420, guid: dc0812e74328c2b49bd11a062b2a935e, type: 3}
      propertyPath: m_Layer
      value: 10
      objectReference: {fileID: 0}
    - target: {fileID: 436418, guid: dc0812e74328c2b49bd11a062b2a935e, type: 3}
      propertyPath: m_LocalPosition.x
      value: 2.33
      objectReference: {fileID: 0}
    - target: {fileID: 436418, guid: dc0812e74328c2b49bd11a062b2a935e, type: 3}
      propertyPath: m_LocalPosition.y
      value: 0.05
      objectReference: {fileID: 0}
    - target: {fileID: 436418, guid: dc0812e74328c2b49bd11a062b2a935e, type: 3}
      propertyPath: m_LocalPosition.z
      value: 0
      objectReference: {fileID: 0}
    - target: {fileID: 436418, guid: dc0812e74328c2b49bd11a062b2a935e, type: 3}
      propertyPath: m_LocalRotation.x
      value: 0
      objectReference: {fileID: 0}
    - target: {fileID: 436418, guid: dc0812e74328c2b49bd11a062b2a935e, type: 3}
      propertyPath: m_LocalRotation.y
      value: 0
      objectReference: {fileID: 0}
    - target: {fileID: 436418, guid: dc0812e74328c2b49bd11a062b2a935e, type: 3}
      propertyPath: m_LocalRotation.z
      value: 0
      objectReference: {fileID: 0}
    - target: {fileID: 436418, guid: dc0812e74328c2b49bd11a062b2a935e, type: 3}
      propertyPath: m_LocalRotation.w
      value: 1
      objectReference: {fileID: 0}
    - target: {fileID: 436418, guid: dc0812e74328c2b49bd11a062b2a935e, type: 3}
      propertyPath: m_RootOrder
      value: 0
      objectReference: {fileID: 0}
    - target: {fileID: 436418, guid: dc0812e74328c2b49bd11a062b2a935e, type: 3}
      propertyPath: m_LocalEulerAnglesHint.x
      value: 0
      objectReference: {fileID: 0}
    - target: {fileID: 436418, guid: dc0812e74328c2b49bd11a062b2a935e, type: 3}
      propertyPath: m_LocalEulerAnglesHint.y
      value: 0
      objectReference: {fileID: 0}
    - target: {fileID: 436418, guid: dc0812e74328c2b49bd11a062b2a935e, type: 3}
      propertyPath: m_LocalEulerAnglesHint.z
      value: 0
      objectReference: {fileID: 0}
    m_RemovedComponents: []
  m_SourcePrefab: {fileID: 100100000, guid: dc0812e74328c2b49bd11a062b2a935e, type: 3}
--- !u!4 &6246982272379226566 stripped
Transform:
  m_CorrespondingSourceObject: {fileID: 436418, guid: dc0812e74328c2b49bd11a062b2a935e,
    type: 3}
  m_PrefabInstance: {fileID: 6246982272379330820}
  m_PrefabAsset: {fileID: 0}
